Основы R для бизнеса
…
---

# Загрузка данных: .xls, .xlsx
Для загрузки файлов Excel используется пакет `readxl` и функция `read_excel()`.

```r
library(readxl)

read_excel(here("00_data/xlsx/bikeshops.xlsx"))
```

```
## # A tibble: 30 x 3
##    bikeshop.id bikeshop.name                location       
##          <dbl> <chr>                        <chr>          
##  1           1 Pittsburgh Mountain Machines Pittsburgh, PA 
##  2           2 Ithaca Mountain Climbers     Ithaca, NY     
##  3           3 Columbus Race Equipment      Columbus, OH   
##  4           4 Detroit Cycles               Detroit, MI    
##  5           5 Cincinnati Speed             Cincinnati, OH 
##  6           6 Louisville Race Equipment    Louisville, KY 
##  7           7 Nashville Cruisers           Nashville, TN  
##  8           8 Denver Bike Shop             Denver, CO     
##  9           9 Minneapolis Bike Shop        Minneapolis, MN
## 10          10 Kansas City 29ers            Kansas City, KS
## # ... with 20 more rows
```
…
]

.pull-right[

```r
as_tibble(iris[,1:3])
```

```
## # A tibble: 150 x 3
##    Sepal.Length Sepal.Width Petal.Length
##           <dbl>       <dbl>        <dbl>
##  1          5.1         3.5          1.4
##  2          4.9         3            1.4
##  3          4.7         3.2          1.3
##  4          4.6         3.1          1.5
##  5          5           3.6          1.4
##  6          5.4         3.9          1.7
##  7          4.6         3.4          1.4
##  8          5           3.4          1.5
##  9          4.4         2.9          1.4
## 10          4.9         3.1          1.5
## # ... with 140 more rows
```
…
---

# Данные: пингвины архипелага Палмера

```r
penguins
```

```
## # A tibble: 344 x 8
##    species island    bill_length_mm bill_depth_mm
##    <fct>   <fct>              <dbl>         <dbl>
##  1 Adelie  Torgersen           39.1          18.7
##  2 Adelie  Torgersen           39.5          17.4
##  3 Adelie  Torgersen           40.3          18  
##  4 Adelie  Torgersen           NA            NA  
##  5 Adelie  Torgersen           36.7          19.3
##  6 Adelie  Torgersen           39.3          20.6
##  7 Adelie  Torgersen           38.9          17.8
##  8 Adelie  Torgersen           39.2          19.6
##  9 Adelie  Torgersen           34.1          18.1
## 10 Adelie  Torgersen           42            20.2
## # ... with 334 more rows, and 4 more variables:
## #   flipper_length_mm <int>, body_mass_g <int>, sex <fct>,
## #   year <int>
```

---

# Фильтрация строк: **filter()**

## Только пингвины сhinstrap

```r
filter(penguins, species == "Chinstrap")
```

```
## # A tibble: 68 x 8
##    species   island bill_length_mm bill_depth_mm
##    <fct>     <fct>           <dbl>         <dbl>
##  1 Chinstrap Dream            46.5          17.9
##  2 Chinstrap Dream            50            19.5
##  3 Chinstrap Dream            51.3          19.2
##  4 Chinstrap Dream            45.4          18.7
##  5 Chinstrap Dream            52.7          19.8
##  6 Chinstrap Dream            45.2          17.8
##  7 Chinstrap Dream            46.1          18.2
##  8 Chinstrap Dream            51.3          18.2
##  9 Chinstrap Dream            46            18.9
## 10 Chinstrap Dream            51.3          19.9
## # ... with 58 more rows, and 4 more variables:
## #   flipper_length_mm <int>, body_mass_g <int>, sex <fct>,
## #   year <int>
```

---

# Фильтрация строк: **filter()**
## Только пингвины сhinstrap **И** gentoo

### Вариант 1:
* Используйте оператор «или», `|` (вертикальная линия), между условиями

```r
filter(penguins, species == "Chinstrap" | species == "Gentoo")
```

```
## # A tibble: 192 x 8
##    species island bill_length_mm bill_depth_mm
##    <fct>   <fct>           <dbl>         <dbl>
##  1 Gentoo  Biscoe           46.1          13.2
##  2 Gentoo  Biscoe           50            16.3
##  3 Gentoo  Biscoe           48.7          14.1
##  4 Gentoo  Biscoe           50            15.2
##  5 Gentoo  Biscoe           47.6          14.5
##  6 Gentoo  Biscoe           46.5          13.5
##  7 Gentoo  Biscoe           45.4          14.6
##  8 Gentoo  Biscoe           46.7          15.3
##  9 Gentoo  Biscoe           43.3          13.4
## 10 Gentoo  Biscoe           46.8          15.4
## # ... with 182 more rows, and 4 more variables:
## #   flipper_length_mm <int>, body_mass_g <int>, sex <fct>,
## #   year <int>
```

---

# Фильтрация строк: **filter()**
## Только пингвины сhinstrap **И** gentoo

### Вариант 2:
* Используйте оператор `%in%`, за которым следует вектор значений, чтобы найти совпадение

```r
filter(penguins, species %in% c("Chinstrap", "Gentoo"))
```

```
## # A tibble: 192 x 8
##    species island bill_length_mm bill_depth_mm
##    <fct>   <fct>           <dbl>         <dbl>
##  1 Gentoo  Biscoe           46.1          13.2
##  2 Gentoo  Biscoe           50            16.3
##  3 Gentoo  Biscoe           48.7          14.1
##  4 Gentoo  Biscoe           50            15.2
##  5 Gentoo  Biscoe           47.6          14.5
##  6 Gentoo  Biscoe           46.5          13.5
##  7 Gentoo  Biscoe           45.4          14.6
##  8 Gentoo  Biscoe           46.7          15.3
##  9 Gentoo  Biscoe           43.3          13.4
## 10 Gentoo  Biscoe           46.8          15.4
## # ... with 182 more rows, and 4 more variables:
## #   flipper_length_mm <int>, body_mass_g <int>, sex <fct>,
## #   year <int>
```
…
---

# Фильтрация строк: **filter()**
Вернемся к нашим пингвинам...

```r
penguins %>%
  filter(species == "Chinstrap")
```

```
## # A tibble: 68 x 8
##    species   island bill_length_mm bill_depth_mm
##    <fct>     <fct>           <dbl>         <dbl>
##  1 Chinstrap Dream            46.5          17.9
##  2 Chinstrap Dream            50            19.5
##  3 Chinstrap Dream            51.3          19.2
##  4 Chinstrap Dream            45.4          18.7
##  5 Chinstrap Dream            52.7          19.8
##  6 Chinstrap Dream            45.2          17.8
##  7 Chinstrap Dream            46.1          18.2
##  8 Chinstrap Dream            51.3          18.2
##  9 Chinstrap Dream            46            18.9
## 10 Chinstrap Dream            51.3          19.9
## # ... with 58 more rows, and 4 more variables:
## #   flipper_length_mm <int>, body_mass_g <int>, sex <fct>,
## #   year <int>
```
…
Два варианта:

```r
filter(x == "a", y == "b") # 1. Через запятую

filter(x == "a" & y == "b") # 2. Через &
```

```r
penguins %>%
  filter(species == "Adelie", island == "Dream")
```

```
## # A tibble: 56 x 8
##    species island bill_length_mm bill_depth_mm
##    <fct>   <fct>           <dbl>         <dbl>
##  1 Adelie  Dream            39.5          16.7
##  2 Adelie  Dream            37.2          18.1
##  3 Adelie  Dream            39.5          17.8
##  4 Adelie  Dream            40.9          18.9
##  5 Adelie  Dream            36.4          17  
##  6 Adelie  Dream            39.2          21.1
##  7 Adelie  Dream            38.8          20  
##  8 Adelie  Dream            42.2          18.5
##  9 Adelie  Dream            37.6          19.3
## 10 Adelie  Dream            39.8          19.1
## # ... with 46 more rows, and 4 more variables:
## #   flipper_length_mm <int>, body_mass_g <int>, sex <fct>,
## #   year <int>
```

---

# Фильтрация строк: **filter()**
## Пингвины с длинной плавника более 200 мм

```r
penguins %>%
  filter(flipper_length_mm > 200)
```

```
## # A tibble: 148 x 8
##    species island    bill_length_mm bill_depth_mm
##    <fct>   <fct>              <dbl>         <dbl>
##  1 Adelie  Dream               35.7          18  
##  2 Adelie  Dream               41.1          18.1
##  3 Adelie  Dream               40.8          18.9
##  4 Adelie  Biscoe              41            20  
##  5 Adelie  Torgersen           41.4          18.5
##  6 Adelie  Torgersen           44.1          18  
##  7 Adelie  Dream               41.5          18.5
##  8 Gentoo  Biscoe              46.1          13.2
##  9 Gentoo  Biscoe              50            16.3
## 10 Gentoo  Biscoe              48.7          14.1
## # ... with 138 more rows, and 4 more variables:
## #   flipper_length_mm <int>, body_mass_g <int>, sex <fct>,
## #   year <int>
```

---

# Фильтрация строк: **filter()**
## Пингвины Adelie с длинной тела более 40 мм

```r
penguins %>%
  filter(species == "Adelie", bill_length_mm > 40)
```

```
## # A tibble: 51 x 8
##    species island    bill_length_mm bill_depth_mm
##    <fct>   <fct>              <dbl>         <dbl>
##  1 Adelie  Torgersen           40.3          18  
##  2 Adelie  Torgersen           42            20.2
##  3 Adelie  Torgersen           41.1          17.6
##  4 Adelie  Torgersen           42.5          20.7
##  5 Adelie  Torgersen           46            21.5
##  6 Adelie  Biscoe              40.6          18.6
##  7 Adelie  Biscoe              40.5          17.9
##  8 Adelie  Biscoe              40.5          18.9
##  9 Adelie  Dream               40.9          18.9
## 10 Adelie  Dream               42.2          18.5
## # ... with 41 more rows, and 4 more variables:
## #   flipper_length_mm <int>, body_mass_g <int>, sex <fct>,
## #   year <int>
```

---

# Фильтрация строк: **filter()**
## Исключение наблюдений по условию
### Оставить все наблюдения **кроме** пингвинов Chinstrap

```r
penguins %>%
  filter(species != "Chinstrap")
```

```
## # A tibble: 276 x 8
##    species island    bill_length_mm bill_depth_mm
##    <fct>   <fct>              <dbl>         <dbl>
##  1 Adelie  Torgersen           39.1          18.7
##  2 Adelie  Torgersen           39.5          17.4
##  3 Adelie  Torgersen           40.3          18  
##  4 Adelie  Torgersen           NA            NA  
##  5 Adelie  Torgersen           36.7          19.3
##  6 Adelie  Torgersen           39.3          20.6
##  7 Adelie  Torgersen           38.9          17.8
##  8 Adelie  Torgersen           39.2          19.6
##  9 Adelie  Torgersen           34.1          18.1
## 10 Adelie  Torgersen           42            20.2
## # ... with 266 more rows, and 4 more variables:
## #   flipper_length_mm <int>, body_mass_g <int>, sex <fct>,
## #   year <int>
```
…
---

# Срез данных: **slice()**
## Все кроме первых 4

```r
penguins %>% 
  slice(-(1:4))
```

```
## # A tibble: 340 x 8
##    species island    bill_length_mm bill_depth_mm
##    <fct>   <fct>              <dbl>         <dbl>
##  1 Adelie  Torgersen           36.7          19.3
##  2 Adelie  Torgersen           39.3          20.6
##  3 Adelie  Torgersen           38.9          17.8
##  4 Adelie  Torgersen           39.2          19.6
##  5 Adelie  Torgersen           34.1          18.1
##  6 Adelie  Torgersen           42            20.2
##  7 Adelie  Torgersen           37.8          17.1
##  8 Adelie  Torgersen           37.8          17.3
##  9 Adelie  Torgersen           41.1          17.6
## 10 Adelie  Torgersen           38.6          21.2
## # ... with 330 more rows, and 4 more variables:
## #   flipper_length_mm <int>, body_mass_g <int>, sex <fct>,
## #   year <int>
```
…
---

# Упорядочивание: **arrange()**
## По возрастанию `bill_length_mm`

```r
penguins %>% 
  arrange(bill_length_mm)
```

```
## # A tibble: 344 x 8
##    species island    bill_length_mm bill_depth_mm
##    <fct>   <fct>              <dbl>         <dbl>
##  1 Adelie  Dream               32.1          15.5
##  2 Adelie  Dream               33.1          16.1
##  3 Adelie  Torgersen           33.5          19  
##  4 Adelie  Dream               34            17.1
##  5 Adelie  Torgersen           34.1          18.1
##  6 Adelie  Torgersen           34.4          18.4
##  7 Adelie  Biscoe              34.5          18.1
##  8 Adelie  Torgersen           34.6          21.1
##  9 Adelie  Torgersen           34.6          17.2
## 10 Adelie  Biscoe              35            17.9
## # ... with 334 more rows, and 4 more variables:
## #   flipper_length_mm <int>, body_mass_g <int>, sex <fct>,
## #   year <int>
```

---

# Упорядочивание: **arrange()**
## По спаданию `bill_length_mm`
### Можно так...

```r
penguins %>% 
  arrange(desc(bill_length_mm))
```

```
## # A tibble: 344 x 8
##    species   island bill_length_mm bill_depth_mm
##    <fct>     <fct>           <dbl>         <dbl>
##  1 Gentoo    Biscoe           59.6          17  
##  2 Chinstrap Dream            58            17.8
##  3 Gentoo    Biscoe           55.9          17  
##  4 Chinstrap Dream            55.8          19.8
##  5 Gentoo    Biscoe           55.1          16  
##  6 Gentoo    Biscoe           54.3          15.7
##  7 Chinstrap Dream            54.2          20.8
##  8 Chinstrap Dream            53.5          19.9
##  9 Gentoo    Biscoe           53.4          15.8
## 10 Chinstrap Dream            52.8          20  
## # ... with 334 more rows, and 4 more variables:
## #   flipper_length_mm <int>, body_mass_g <int>, sex <fct>,
## #   year <int>
```

---

# Упорядочивание: **arrange()**
## По спаданию `bill_depth_mm`
### А можно так...

```r
penguins %>% 
  arrange(-bill_depth_mm)
```

```
## # A tibble: 344 x 8
##    species   island    bill_length_mm bill_depth_mm
##    <fct>     <fct>              <dbl>         <dbl>
##  1 Adelie    Torgersen           46            21.5
##  2 Adelie    Torgersen           38.6          21.2
##  3 Adelie    Dream               42.3          21.2
##  4 Adelie    Torgersen           34.6          21.1
##  5 Adelie    Dream               39.2          21.1
##  6 Adelie    Biscoe              41.3          21.1
##  7 Chinstrap Dream               54.2          20.8
##  8 Adelie    Torgersen           42.5          20.7
##  9 Adelie    Biscoe              39.6          20.7
## 10 Chinstrap Dream               52            20.7
## # ... with 334 more rows, and 4 more variables:
## #   flipper_length_mm <int>, body_mass_g <int>, sex <fct>,
## #   year <int>
```

---

# Отбор столбцов: **select()**
## Оставить только `year`, `island` и `species`

```r
penguins %>%
  select(year, island, species)
```

```
## # A tibble: 344 x 3
##     year island    species
##    <int> <fct>     <fct>  
##  1  2007 Torgersen Adelie 
##  2  2007 Torgersen Adelie 
##  3  2007 Torgersen Adelie 
##  4  2007 Torgersen Adelie 
##  5  2007 Torgersen Adelie 
##  6  2007 Torgersen Adelie 
##  7  2007 Torgersen Adelie 
##  8  2007 Torgersen Adelie 
##  9  2007 Torgersen Adelie 
## 10  2007 Torgersen Adelie 
## # ... with 334 more rows
```

---

# Отбор столбцов: **select()**
## Оставить все столбцы начиная с `species` и до `body_mass_g`

```r
penguins %>%
  select(species:body_mass_g)
```

```
## # A tibble: 344 x 6
##    species island    bill_length_mm bill_depth_mm
##    <fct>   <fct>              <dbl>         <dbl>
##  1 Adelie  Torgersen           39.1          18.7
##  2 Adelie  Torgersen           39.5          17.4
##  3 Adelie  Torgersen           40.3          18  
##  4 Adelie  Torgersen           NA            NA  
##  5 Adelie  Torgersen           36.7          19.3
##  6 Adelie  Torgersen           39.3          20.6
##  7 Adelie  Torgersen           38.9          17.8
##  8 Adelie  Torgersen           39.2          19.6
##  9 Adelie  Torgersen           34.1          18.1
## 10 Adelie  Torgersen           42            20.2
## # ... with 334 more rows, and 2 more variables:
## #   flipper_length_mm <int>, body_mass_g <int>
```

---

# Отбор столбцов: **select()**
## Оставить все столбцы начиная с `species` до `bill_depth_mm ` и `year` 

```r
penguins %>%
  select(species:bill_depth_mm, year)
```

```
## # A tibble: 344 x 5
##    species island    bill_length_mm bill_depth_mm  year
##    <fct>   <fct>              <dbl>         <dbl> <int>
##  1 Adelie  Torgersen           39.1          18.7  2007
##  2 Adelie  Torgersen           39.5          17.4  2007
##  3 Adelie  Torgersen           40.3          18    2007
##  4 Adelie  Torgersen           NA            NA    2007
##  5 Adelie  Torgersen           36.7          19.3  2007
##  6 Adelie  Torgersen           39.3          20.6  2007
##  7 Adelie  Torgersen           38.9          17.8  2007
##  8 Adelie  Torgersen           39.2          19.6  2007
##  9 Adelie  Torgersen           34.1          18.1  2007
## 10 Adelie  Torgersen           42            20.2  2007
## # ... with 334 more rows
```
---

# Отбор столбцов: **select()**
* Убрать **столбец** можно с помощью знака `-`
* Убрать **несколько последовательных столбцов** можно с помощью `!(var1:var5)`
* Убрать **несколько не последовательных столбцов** можно с помощью `!(var1, var3, var5)`
## Оставить все кроме `island`

```r
penguins %>%
  select(-island)
```

```
## # A tibble: 344 x 7
##    species bill_length_mm bill_depth_mm flipper_length_mm
##    <fct>            <dbl>         <dbl>             <int>
##  1 Adelie            39.1          18.7               181
##  2 Adelie            39.5          17.4               186
##  3 Adelie            40.3          18                 195
##  4 Adelie            NA            NA                  NA
##  5 Adelie            36.7          19.3               193
##  6 Adelie            39.3          20.6               190
##  7 Adelie            38.9          17.8               181
##  8 Adelie            39.2          19.6               195
##  9 Adelie            34.1          18.1               193
## 10 Adelie            42            20.2               190
## # ... with 334 more rows, and 3 more variables:
## #   body_mass_g <int>, sex <fct>, year <int>
```

---

# Отбор столбцов: **select()**
## Убрать столбцы с `island` по `bill_depth_mm`

```r
penguins %>%
  select(!(island:bill_depth_mm))
```

```
## # A tibble: 344 x 5
##    species flipper_length_mm body_mass_g sex     year
##    <fct>               <int>       <int> <fct>  <int>
##  1 Adelie                181        3750 male    2007
##  2 Adelie                186        3800 female  2007
##  3 Adelie                195        3250 female  2007
##  4 Adelie                 NA          NA <NA>    2007
##  5 Adelie                193        3450 female  2007
##  6 Adelie                190        3650 male    2007
##  7 Adelie                181        3625 female  2007
##  8 Adelie                195        4675 male    2007
##  9 Adelie                193        3475 <NA>    2007
## 10 Adelie                190        4250 <NA>    2007
## # ... with 334 more rows
```

---

# Отбор столбцов: **select()**
## Убрать столбцы `species`, `flipper_length_mm` и `year`

```r
penguins %>%
  select(!c(species, flipper_length_mm, year))
```

```
## # A tibble: 344 x 5
##    island    bill_length_mm bill_depth_mm body_mass_g sex   
##    <fct>              <dbl>         <dbl>       <int> <fct> 
##  1 Torgersen           39.1          18.7        3750 male  
##  2 Torgersen           39.5          17.4        3800 female
##  3 Torgersen           40.3          18          3250 female
##  4 Torgersen           NA            NA            NA <NA>  
##  5 Torgersen           36.7          19.3        3450 female
##  6 Torgersen           39.3          20.6        3650 male  
##  7 Torgersen           38.9          17.8        3625 female
##  8 Torgersen           39.2          19.6        4675 male  
##  9 Torgersen           34.1          18.1        3475 <NA>  
## 10 Torgersen           42            20.2        4250 <NA>  
## # ... with 334 more rows
```
…
